{
  "type": "service_account",
  "project_id": "alintiqa-a2dcb",
  "private_key_id": "31139fafdcbe7aa3792786cf684ece523a6b196a",
  "private_key": "-----BEGIN PRIVATE KEY-----\nMIIEvgIBADANBgkqhkiG9w0BAQEFAASCBKgwggSkAgEAAoIBAQCqpBj53YrO5Tfu\nNPI5MYhAa3e2AbBcemlxuYFyKQ8YdvsULPfLY59fMVJiICHWE4xdyS2+6k18q+k1\nTL/BNRtTVpW30vsbi71GU1j51/i6n6uAwsNmrAivpi9UxdKJH9HjNpY6fvm7l0d0\natXaoIHaD9/y3PQCkSywl/qGCIzUxVyM3AcwWdk7wK+yZFJ4XRMqhuQ2ICjBmZy+\ntPg3l5HpHDSScUrDwcXlm9WHGErjFYJQLArjYR/qG/6gMLar/8eCph9Vre3evT/Y\n3fHeiqxREK2HdicCDaR9yZpXMNJq8GCZU/2f0+GjiSE0APNkscjaS9I9g4jFDSUN\n5BB6why7AgMBAAECggEAG2ny2+wsPqzd3WutdmQaFZoDnhPgt3AFvKV8Fvu4Vx/W\nRRmBqFqVjKop0rstdGz+N0WjZHEpMwbol7gqyOlf6HWX5p5YhRu1XrTz2GpKpVYS\n1sQeDEKbFUzyJwEDn8/4MjPffVT6M0RMeyF8FdGEyvmTQDsgYGveQsidENIS005W\ndJmcXf1yPb/x7aEpwAaicJqJ51rTIniRSdtPqXWw9HohW1908a66qHI7Ml4v3aNl\nMgwsMkLyTH68xhmsNPbe1kdto28lW1k+PChNNdaIgSNGuyiDkBK/drDz7YEtCGo5\ncGKlxeEovL5kH2lM2Rpum+eYkLZB14p0LKOleqnBIQKBgQDcDnk/yfo+0RTnS6hW\nf7OAEmkcyBpPGl+7xbXV7g76sCgenw9U4dI7uR91hjSfDeI5TOqQzUkmteAMo6iy\nk65x4P8VwoeeDD8WwwmBAo6ex4b18ruPlid4zGj/dsLMJGVnRq8u5qDGvIU00f1R\n80mV3ewzqBjW6p8CK9k/DrVi8wKBgQDGg1grol7BMZNtbTEQ3oG8akJzAx5IVYUp\nnUBTLFbhs7c0wuEuzLFVtO8NG8/8qKAY0Y5SO3Yv2Cds4mPxIV5z9txJzyORwFbt\nSTfBxlnRV6ZYvluJUiqvJq1LVzhbd7FMF0xEJmXkLkc4o16cBOaHSMwdqQr+zj/h\nc0DTcNWBGQKBgQC2R07sJdQh4HLePG9OZy06swVaj+4rA/+0vEqo0C6cPPqeksbS\nWtQYIHoMkYRZE9kF+c5673Dendze21nLwkTHk8X4MlC//AjuQ9RFhua4YzJJ3Cy8\n/XXou/llUux8yNEuQQCvat5WgKYeYKrjDRExEMis6VrZ+zKHS+cCMp7RPQKBgQC2\n+7c4cXEacBJPWclSnWfFP8WEsqklT/9xPoxeno5vefM0ZTagpvoH4MJBuRNc+Cqq\n9e9UiY8Fxx+AVKZ/TJz+E903BALrhPobu9PzgFymhT7GqqFB0UWbMfGncvx2A7yg\nQRGB+EsPrEDmSmEZO8MrjMTpyjpiacekj1KAFJAZcQKBgB3ToAeNYOaiZ99EYMpO\nZ3RaxhyGd3CdKPRpBIXyyGiRciqCOBcXhaHMFUEChzI77GYb7loUQpCtGYfNhhd0\nghMQn3EOUyQMvRsvEnQSUWsXEehQ0R2B2ECXG3UHKg6pDCpH4gKISIX1MuTsc10e\nnYk4kQ5RiRcN7TyfYyHsrBj8\n-----END PRIVATE KEY-----\n",
  "client_email": "firebase-adminsdk-l8zj8@alintiqa-a2dcb.iam.gserviceaccount.com",
  "client_id": "116902365234869765025",
  "auth_uri": "https://accounts.google.com/o/oauth2/auth",
  "token_uri": "https://oauth2.googleapis.com/token",
  "auth_provider_x509_cert_url": "https://www.googleapis.com/oauth2/v1/certs",
  "client_x509_cert_url": "https://www.googleapis.com/robot/v1/metadata/x509/firebase-adminsdk-l8zj8%40alintiqa-a2dcb.iam.gserviceaccount.com"
}
